PubMed Article Extraction Using rentrez
…
# Load in second dataset in case environment clean on knit (above sections not executed for render):
results_behav_addictions_rvest<- read.csv("Data extraction/behav_addictions_titles.csv") %>% 
  as_tibble()

# Merge the two datasets:
results_behav_addictions2 <- results_behav_addictions %>%
  rename("Title_trunc" = "Title") %>% # Designate the truncated title from the primary dataset
  merge(results_behav_addictions_rvest, by = "PMID") %>%
  relocate(Title) %>% # Place full title first for ease
  as_tibble() %>%
  print()

# A tibble: 865 × 14
   Title            PMID  Year Month Title_trunc DOI   Abstract Full_Author_Name
   <chr>           <int> <int> <chr> <chr>       <chr> <chr>    <chr>           
 1 "[Alternating… 9.04e6  1996 Jul-… "[Alternat… <NA>  "The co… Bayle, F J; Chi…
 2 "Psychology o… 9.12e6  1997 Feb   "Psycholog… <NA>  "This p… Griffiths, M    
 3 "Subtype-sele… 1.09e7  2000 Jul   "Subtype-s… <NA>  "Neuron… Francis, M M; V…
 4 "The neurobio… 1.14e7  2001 Jul   "The neuro… <NA>  "Despit… Potenza, M N    
 5 "A factor-ana… 1.22e7  2002 Aug   "A factor-… <NA>  "Eviden… Charlton, John P
 6 "Genetics of … 1.26e7  2003 Spri… "Genetics … <NA>  "Pathol… Ibanez, Angela;…
 7 "Benzodiazepi… 1.27e7  2003 May   "Benzodiaz… <NA>  "AIMS: … de las Cuevas, …
 8 "[Excessive c… 1.51e7  2004 Mar   "[Excessiv… <NA>  "Compul… Grusser, Sabine…
 9 "The behavior… 1.58e7  2004 Dec   "The behav… <NA>  "From t… Rachlin, Howard 
10 "Substance ab… 1.70e7  2006 Sep   "Substance… <NA>  "BACKGR… Kertesz, Stefan…
# ℹ 855 more rows
# ℹ 6 more variables: Author_Address <chr>, Language <chr>,
#   Publication_Type <chr>, Journal_name_short <chr>,
#   Conflict_of_Interest_Statement <chr>, Journal_Title <chr>
…
# Number of separate journals:
results_behav_addictions2 %>% 
  distinct(Journal_name_short) %>% 
  arrange(Journal_name_short) %>% 
  print(n = 50)

# A tibble: 275 × 1
   Journal_name_short                        
   <chr>                                     
 1 Acta Biomed                               
 2 Acta Derm Venereol                        
 3 Acta Med Port                             
 4 Acta Psychol (Amst)                       
 5 Addict Behav                              
 6 Addict Behav Rep                          
 7 Addict Biol                               
 8 Addiction                                 
 9 Adicciones                                
10 Adv Exp Med Biol                          
11 Alcohol Clin Exp Res                      
12 Am J Addict                               
13 Am J Clin Nutr                            
14 Am J Drug Alcohol Abuse                   
15 Am J Mens Health                          
16 Am J Orthopsychiatry                      
17 Ann Agric Environ Med                     
18 Ann Gen Psychiatry                        
19 Ann N Y Acad Sci                          
20 Annu Rev Nutr                             
21 Appetite                                  
22 Arch Iran Med                             
23 Arch Sex Behav                            
24 Arch Womens Ment Health                   
25 Asian J Gambl Issues Public Health        
26 Asian J Psychiatr                         
27 Aust N Z J Psychiatry                     
28 BMC Psychiatry                            
29 BMC Psychol                               
30 BMC Public Health                         
31 BMJ Open                                  
32 Behav Brain Funct                         
33 Behav Brain Res                           
34 Behav Brain Sci                           
35 Behav Neurosci                            
36 Behav Sci (Basel)                         
37 Biol Psychiatry                           
38 Biol Psychiatry Cogn Neurosci Neuroimaging
39 Biomed Res Int                            
40 Biotechnol Biotechnol Equip               
41 Br J Dermatol                             
42 Br J Gen Pract                            
43 Br J Health Psychol                       
44 Br J Nutr                                 
45 Br J Psychiatry                           
46 Br J Psychol                              
47 Brain Behav                               
48 Brain Behav Immun                         
49 Brain Res                                 
50 Brain Sci                                 
# ℹ 225 more rows

# Most popular journals:
results_behav_addictions2 %>% 
  group_by(Journal_name_short) %>% 
  summarise(
    n = n()
  ) %>% 
  arrange(desc(n)) %>%
  print(n = 50)

# A tibble: 275 × 2
   Journal_name_short                                                n
   <chr>                                                         <int>
 1 J Behav Addict                                                  106
 2 Front Psychiatry                                                 56
 3 Addict Behav                                                     39
 4 Int J Environ Res Public Health                                  37
 5 Addiction                                                        28
 6 Front Psychol                                                    27
 7 PLoS One                                                         17
 8 J Gambl Stud                                                     16
 9 Psychiatry Res                                                   16
10 Addict Biol                                                      14
11 Adv Exp Med Biol                                                 12
12 Cyberpsychol Behav Soc Netw                                      10
13 CNS Spectr                                                        9
14 Neurosci Biobehav Rev                                             8
15 Clin Psychol Rev                                                  7
16 Front Behav Neurosci                                              7
17 Addict Behav Rep                                                  6
18 Am J Drug Alcohol Abuse                                           6
19 Compr Psychiatry                                                  6
20 Int J Ment Health Addict                                          6
21 J Addict Dis                                                      6
22 J Clin Med                                                        6
23 Aust N Z J Psychiatry                                             5
24 Cureus                                                            5
25 Drug Alcohol Depend                                               5
26 Eur Addict Res                                                    5
27 Eur Neuropsychopharmacol                                          5
28 Neuropsychopharmacology                                           5
29 Psychol Med                                                       5
30 Sci Rep                                                           5
31 BMC Psychiatry                                                    4
32 Curr Addict Rep                                                   4
33 Curr Psychol                                                      4
34 Ir J Psychol Med                                                  4
35 Nervenarzt                                                        4
36 Prog Neuropsychopharmacol Biol Psychiatry                         4
37 Psychiatr Danub                                                   4
38 Psychiatr Hung                                                    4
39 Psychol Addict Behav                                              4
40 Psychol Rep                                                       4
41 Psychopharmacology (Berl)                                         4
42 Transl Psychiatry                                                 4
43 Z Kinder Jugendpsychiatr Psychother                               4
44 BMC Psychol                                                       3
45 BMC Public Health                                                 3
46 Behav Brain Res                                                   3
47 Behav Sci (Basel)                                                 3
48 Brain Behav                                                       3
49 Bundesgesundheitsblatt Gesundheitsforschung Gesundheitsschutz     3
50 Child Adolesc Psychiatr Clin N Am                                 3
# ℹ 225 more rows

# View(results_behav_addictions_sans_duplicates) # Visually inspect results

# Now I need to add a label to all of these studies to signify that they Were returned from the behav_addictions search so that we can distinguish them from other studies when we later joined the datasets together:
Label <- rep("behavioural_addictions", times = count(results_behav_addictions2))

results_behav_addictions_final <- results_behav_addictions2 %>% bind_cols(Label) %>%
  rename(Label = 14) %>%
  print()

New names:
• `` -> `...15`

# A tibble: 865 × 15
   Title            PMID  Year Month Title_trunc DOI   Abstract Full_Author_Name
   <chr>           <int> <int> <chr> <chr>       <chr> <chr>    <chr>           
 1 "[Alternating… 9.04e6  1996 Jul-… "[Alternat… <NA>  "The co… Bayle, F J; Chi…
 2 "Psychology o… 9.12e6  1997 Feb   "Psycholog… <NA>  "This p… Griffiths, M    
 3 "Subtype-sele… 1.09e7  2000 Jul   "Subtype-s… <NA>  "Neuron… Francis, M M; V…
 4 "The neurobio… 1.14e7  2001 Jul   "The neuro… <NA>  "Despit… Potenza, M N    
 5 "A factor-ana… 1.22e7  2002 Aug   "A factor-… <NA>  "Eviden… Charlton, John P
 6 "Genetics of … 1.26e7  2003 Spri… "Genetics … <NA>  "Pathol… Ibanez, Angela;…
 7 "Benzodiazepi… 1.27e7  2003 May   "Benzodiaz… <NA>  "AIMS: … de las Cuevas, …
 8 "[Excessive c… 1.51e7  2004 Mar   "[Excessiv… <NA>  "Compul… Grusser, Sabine…
 9 "The behavior… 1.58e7  2004 Dec   "The behav… <NA>  "From t… Rachlin, Howard 
10 "Substance ab… 1.70e7  2006 Sep   "Substance… <NA>  "BACKGR… Kertesz, Stefan…
# ℹ 855 more rows
# ℹ 7 more variables: Author_Address <chr>, Language <chr>,
#   Publication_Type <chr>, Journal_name_short <chr>,
#   Conflict_of_Interest_Statement <chr>, Label <chr>, ...15 <chr>
…
# Load in second dataset in case environment clean on knit (above sections not executed for render):
results_gambling_rvest<- read.csv("Data extraction/gambling_titles.csv") %>% 
  as_tibble()

# Merge the two datasets:
results_gambling2 <- results_gambling %>%
  rename("Title_trunc" = "Title") %>% # Designate the truncated title from the primary dataset
  merge(results_gambling_rvest, by = "PMID") %>%
  relocate(Title) %>% # Place full title first for ease
  as_tibble() %>%
  print()

# A tibble: 3,502 × 14
   Title            PMID  Year Month Title_trunc DOI   Abstract Full_Author_Name
   <chr>           <int> <int> <chr> <chr>       <chr> <chr>    <chr>           
 1 "Pathological… 3.18e5  1979 Oct   "Pathologi… <NA>   <NA>    Allcock, C C    
 2 "Pathological… 3.18e5  1979 Oct   "Pathologi… <NA>   <NA>    Allcock, C C    
 3 "Games, goods… 3.91e5  1979 Jun   "Games, go… <NA>  "This s… Salter, M A     
 4 "Games, goods… 3.91e5  1979 Jun   "Games, go… <NA>  "This s… Salter, M A     
 5 "Compulsive g… 6.84e5  1978 May   "Compulsiv… <NA>   <NA>    Oldman, D       
 6 "\"Compulsive… 7.21e5  1978 Oct   "\"Compuls… <NA>  "A mode… Kusyszyn, I     
 7 "The compulsi… 7.60e5  1979 Feb   "The compu… <NA>  "The ma… Lesieur, H R    
 8 "The compulsi… 7.60e5  1979 Feb   "The compu… <NA>  "The ma… Lesieur, H R    
 9 "'Compulsive'… 9.29e5  1977 Oct   "'Compulsi… <NA>   <NA>    Dickerson, M    
10 "Pathological… 1.10e6  1975 <NA>  "Pathologi… <NA>   <NA>    Moran, E        
# ℹ 3,492 more rows
# ℹ 6 more variables: Author_Address <chr>, Language <chr>,
#   Publication_Type <chr>, Journal_name_short <chr>,
#   Conflict_of_Interest_Statement <chr>, Journal_Title <chr>
…
# Remove these asap as they're clear duplicates:
results_gambling_sans_duplicates<- results_gambling2 %>%
  distinct(PMID, .keep_all = TRUE) %>% 
  print()

# A tibble: 2,953 × 14
   Title            PMID  Year Month Title_trunc DOI   Abstract Full_Author_Name
   <chr>           <int> <int> <chr> <chr>       <chr> <chr>    <chr>           
 1 "Pathological… 3.18e5  1979 Oct   "Pathologi… <NA>   <NA>    Allcock, C C    
 2 "Games, goods… 3.91e5  1979 Jun   "Games, go… <NA>  "This s… Salter, M A     
 3 "Compulsive g… 6.84e5  1978 May   "Compulsiv… <NA>   <NA>    Oldman, D       
 4 "\"Compulsive… 7.21e5  1978 Oct   "\"Compuls… <NA>  "A mode… Kusyszyn, I     
 5 "The compulsi… 7.60e5  1979 Feb   "The compu… <NA>  "The ma… Lesieur, H R    
 6 "'Compulsive'… 9.29e5  1977 Oct   "'Compulsi… <NA>   <NA>    Dickerson, M    
 7 "Pathological… 1.10e6  1975 <NA>  "Pathologi… <NA>   <NA>    Moran, E        
 8 "The patholog… 1.41e6  1992 Sep   "The patho… <NA>  "Over t… Rosenthal, R J;…
 9 "Borderline o… 1.42e6  1992 Aug   "Borderlin… <NA>  "Border… Selzer, J       
10 "Diagnoses ar… 1.42e6  1992 Nov   "Diagnoses… <NA>  "The ps… Mindham, R H; S…
# ℹ 2,943 more rows
# ℹ 6 more variables: Author_Address <chr>, Language <chr>,
#   Publication_Type <chr>, Journal_name_short <chr>,
#   Conflict_of_Interest_Statement <chr>, Journal_Title <chr>
…
# There are a few more of these, suggesting there are some papers with the same title, journal and date but different authors. 
# The only one of concern is this one (PMID: 31346181) which is  garaphical abstract for another paper by the looks. 

# Remove duplicates based on above observation:
results_gambling_sans_duplicates2<- results_gambling_sans_duplicates %>%
filter(PMID != "31346181") %>% 
  print()

# A tibble: 2,952 × 14
   Title            PMID  Year Month Title_trunc DOI   Abstract Full_Author_Name
   <chr>           <int> <int> <chr> <chr>       <chr> <chr>    <chr>           
 1 "Pathological… 3.18e5  1979 Oct   "Pathologi… <NA>   <NA>    Allcock, C C    
 2 "Games, goods… 3.91e5  1979 Jun   "Games, go… <NA>  "This s… Salter, M A     
 3 "Compulsive g… 6.84e5  1978 May   "Compulsiv… <NA>   <NA>    Oldman, D       
 4 "\"Compulsive… 7.21e5  1978 Oct   "\"Compuls… <NA>  "A mode… Kusyszyn, I     
 5 "The compulsi… 7.60e5  1979 Feb   "The compu… <NA>  "The ma… Lesieur, H R    
 6 "'Compulsive'… 9.29e5  1977 Oct   "'Compulsi… <NA>   <NA>    Dickerson, M    
 7 "Pathological… 1.10e6  1975 <NA>  "Pathologi… <NA>   <NA>    Moran, E        
 8 "The patholog… 1.41e6  1992 Sep   "The patho… <NA>  "Over t… Rosenthal, R J;…
 9 "Borderline o… 1.42e6  1992 Aug   "Borderlin… <NA>  "Border… Selzer, J       
10 "Diagnoses ar… 1.42e6  1992 Nov   "Diagnoses… <NA>  "The ps… Mindham, R H; S…
# ℹ 2,942 more rows
# ℹ 6 more variables: Author_Address <chr>, Language <chr>,
#   Publication_Type <chr>, Journal_name_short <chr>,
#   Conflict_of_Interest_Statement <chr>, Journal_Title <chr>
…
# Number of separate journals:
results_gambling_sans_duplicates2 %>% 
  distinct(Journal_name_short) %>% 
  arrange(Journal_name_short) %>% 
  print(n = 50)

# A tibble: 603 × 1
   Journal_name_short                          
   <chr>                                       
 1 ACS Chem Neurosci                           
 2 AIDS Care                                   
 3 Acta Med Port                               
 4 Acta Neurol Belg                            
 5 Acta Neuropsychiatr                         
 6 Acta Psychiatr Scand                        
 7 Acta Psychother Psychosom                   
 8 Actas Esp Psiquiatr                         
 9 Actas Luso Esp Neurol Psiquiatr Cienc Afines
10 Addict Behav                                
11 Addict Behav Rep                            
12 Addict Biol                                 
13 Addict Health                               
14 Addiction                                   
15 Adicciones                                  
16 Adolesc Health Med Ther                     
17 Adv Exp Med Biol                            
18 Adv Pharmacol                               
19 Aging Ment Health                           
20 Alcohol Alcohol                             
21 Alcohol Clin Exp Res                        
22 Am Indian Alsk Native Ment Health Res       
23 Am J Addict                                 
24 Am J Drug Alcohol Abuse                     
25 Am J Epidemiol                              
26 Am J Forensic Med Pathol                    
27 Am J Geriatr Psychiatry                     
28 Am J Health Behav                           
29 Am J Ind Med                                
30 Am J Orthopsychiatry                        
31 Am J Pharm Educ                             
32 Am J Psychiatry                             
33 Am J Psychoanal                             
34 Am J Psychother                             
35 Am J Public Health                          
36 Am J Ther                                   
37 Am Psychol                                  
38 An Sist Sanit Navar                         
39 Anal Gambl Behav                            
40 Ann Acad Med Singap                         
41 Ann Agric Environ Med                       
42 Ann Clin Psychiatry                         
43 Ann Gen Psychiatry                          
44 Ann Ig                                      
45 Ann Indian Acad Neurol                      
46 Ann Ist Super Sanita                        
47 Ann Med Psychol (Paris)                     
48 Ann N Y Acad Sci                            
49 Ann Neurol                                  
50 Ann Pharmacother                            
# ℹ 553 more rows
…
